[
    {
        "id": "Learn_7",
        "category": "Learn",
        "quoteText": "You can never cross the ocean until you have the courage to lose sight of the shore",
        "author": "Christopher Columbus",
        "thumbnail": "https://euraconsult.ch/booksuggestions/1_ShowYourWork.png",
        "webLink": "https://austinkleon.com/show-your-work/"
    },
    {
        "id": "Learn_8",
        "category": "Learn",
        "quoteText": "Sometimes you win, and sometimes you learn",
        "author": "",
        "thumbnail": "sundowner_mobh_500_500",
        "webLink": "https://buildingastorybrand.com"
    },
    {
        "id": "Learn_9",
        "category": "Learn",
        "quoteText": "Insanity: doing the same thing over and over again and expecting different results",
        "author": "A. Einstein",
        "thumbnail": "bridge_mobh_500_500_2",
        "webLink": "https://alifeofproductivity.com/the-productivity-project/"
    }
]
